<svg width="24" height="24" viewBox="0 0 24 24" fill="none" xmlns="http://www.w3.org/2000/svg">
<g id="arrow-down-s-line" clip-path="url(#clip0_184_7494)">
<g id="Group">
<path id="Vector" d="M11.9997 13.1722L16.9497 8.22217L18.3637 9.63617L11.9997 16.0002L5.63574 9.63617L7.04974 8.22217L11.9997 13.1722Z" fill="#0D0D0D"/>
</g>
</g>
<defs>
<clipPath id="clip0_184_7494">
<rect width="24" height="24" fill="white"/>
</clipPath>
</defs>
</svg>
