<svg width="24" height="24" viewBox="0 0 24 24" fill="none" xmlns="http://www.w3.org/2000/svg">
    <g clip-path="url(#clip0_287_7611)">
        <path d="M3 4H21V6H3V4ZM3 11H15V13H3V11ZM3 18H21V20H3V18Z" fill="#0D0D0D"/>
    </g>
    <defs>
        <clipPath id="clip0_287_7611">
            <rect width="24" height="24" fill="white"/>
        </clipPath>
    </defs>
</svg>
