<svg width="18" height="18" viewBox="0 0 18 18" fill="none" xmlns="http://www.w3.org/2000/svg">
<g id="edit-line" clip-path="url(#clip0_277_5276)">
<g id="Group">
<path id="Vector" d="M4.8105 12.0001L12.417 4.39356L11.3565 3.33306L3.75 10.9396V12.0001H4.8105ZM5.43225 13.5001H2.25V10.3178L10.8263 1.74156C10.9669 1.60096 11.1576 1.52197 11.3565 1.52197C11.5554 1.52197 11.7461 1.60096 11.8867 1.74156L14.0085 3.86331C14.1491 4.00396 14.2281 4.19469 14.2281 4.39356C14.2281 4.59244 14.1491 4.78317 14.0085 4.92381L5.43225 13.5001V13.5001ZM2.25 15.0001H15.75V16.5001H2.25V15.0001Z" fill="#0D0D0D"/>
</g>
</g>
<defs>
<clipPath id="clip0_277_5276">
<rect width="18" height="18" fill="white"/>
</clipPath>
</defs>
</svg>
