<svg width="24" height="24" viewBox="0 0 24 24" fill="none" xmlns="http://www.w3.org/2000/svg">
    <g clip-path="url(#clip0_817_1915)">
        <path d="M11 4H21V6H11V4ZM11 8H17V10H11V8ZM11 14H21V16H11V14ZM11 18H17V20H11V18ZM3 4H9V10H3V4ZM5 6V8H7V6H5ZM3 14H9V20H3V14ZM5 16V18H7V16H5Z" fill="#0D0D0D" fill-opacity="0.4"/>
    </g>
    <defs>
        <clipPath id="clip0_817_1915">
            <rect width="24" height="24" fill="white"/>
        </clipPath>
    </defs>
</svg>
